0000 : 14 0b 00               : jmp @0x000b
0003 :                        : <a>
0003 : 00 00 00 00            : .long 0x00000000
0007 :                        : <b>
0007 : 00 00 00 00            : .long 0x00000000
000b :                        : <main>
000b : 2f 11 00 30 03 00      : inl @0x0011 @0003
0011 : 2f 17 00 30 07 00      : inl @0x0017 @0007
0017 :                        : <loop>
0017 : 1b 22 00 20 03 00 30
       07 00 45 00            : jel @0x0022 @0003 @0007 @0x0045
0022 : 1f 2d 00 20 03 00 30
       07 00 39 00            : jll @0x002d @0003 @0007 @0x0039
002d :                        : <BinfA>
002d : 0b 17 00 20 03 00 20
       03 00 30 07 00         : subl @0x0017 @0003 @0003 @0007
0039 :                        : <AinfB>
0039 : 0b 17 00 20 07 00 20
       07 00 30 03 00         : subl @0x0017 @0007 @0007 @0003
0045 :                        : <end>
0045 : 33 4b 00 30 03 00      : outl @0x004b @0003
004b : 34                     : stop
